[gd_scene load_steps=1 format=2]

[sub_resource id=1 type="SpatialMaterial"]

flags_unshaded = false
flags_vertex_lighting = false
flags_transparent = false
vertex_color_use_as_albedo = false
albedo_color = Color(1.0, 1.0, 0.937585, 1.0)
subsurf_scatter_enabled = false

[sub_resource id=2 type="ArrayMesh"]

surfaces/0 = {
	"material":SubResource(1),
	"primitive":4,
	"arrays":[
		Vector3Array(-1.30495e-08, 0.35991, -0.00861754, -0.0561588, 0.316249, 0.126954, -1.30495e-08, 0.311986, 0.128745, 0.0561588, 0.316249, 0.126954, -0.103768, 0.316249, 0.0951444, 0.103768, 0.316249, 0.0951444, -0.135579, 0.316249, 0.0475378, 0.135579, 0.316249, 0.0475378, -0.146749, 0.316249, -0.00861786, 0.146749, 0.316249, -0.00861786, -1.30495e-08, 0.35991, -0.00861754, -0.135579, 0.316249, -0.0647736, -0.146749, 0.316249, -0.00861786, 0.146749, 0.316249, -0.00861786, 0.135579, 0.316249, -0.0647736, -0.103767, 0.316249, -0.11238, 0.103767, 0.316249, -0.11238, -0.0561581, 0.316249, -0.144189, 0.0561581, 0.316249, -0.144189, -1.30495e-08, 0.316249, -0.155359, -0.0881087, 0.22968, 0.188819, -1.30495e-08, 0.22742, 0.200128, 0.0881087, 0.22968, 0.188819, -0.162804, 0.236619, 0.154178, 0.162804, 0.236619, 0.154178, -0.212713, 0.236619, 0.0794868, 0.212713, 0.236619, 0.0794868, -0.230239, 0.236619, -0.00861748, 0.230239, 0.236619, -0.00861748, -0.212713, 0.236619, -0.0967217, -0.230239, 0.236619, -0.00861748, 0.212713, 0.236619, -0.0967217, -0.162804, 0.236619, -0.171413, 0.162804, 0.236619, -0.171413, -0.0881087, 0.236619, -0.22132, 0.0881087, 0.236619, -0.22132, -1.30495e-08, 0.236619, -0.238845, -0.10436, 0.0421311, -0.260551, 0.10436, 0.0421311, -0.260551, -1.30495e-08, 0.0421311, -0.281308, -0.192831, 0.0421311, -0.201439, 0.192831, 0.0421311, -0.201439, -0.259034, 0.0430318, -0.0592494, 0.259034, 0.0430318, -0.0592494, -0.273705, 0.0666783, -0.0111642, 0.273705, 0.0666783, -0.0111642, -0.259034, 0.0409414, 0.0362198, 0.259034, 0.0409414, 0.0362198, 0.273705, 0.0666783, -0.0111642, -0.19975, 0.0514174, 0.168017, 0.19975, 0.0514174, 0.168017, -0.110322, 0.0805949, 0.205382, 0.110322, 0.0805949, 0.205382, -1.30495e-08, 0.0941414, 0.218885, -0.219221, -0.160295, -0.227828, 0.219221, -0.160295, -0.227828, 0.118642, -0.160295, -0.295029, -0.118642, -0.160295, -0.295029, -1.30495e-08, -0.160295, -0.318627, -0.21872, -0.23174, -0.227326, 0.21872, -0.23174, -0.227326, 0.11837, -0.23174, -0.294374, -0.285771, -0.23174, -0.126982, -0.284655, -0.0950708, -0.0531751, 0.285771, -0.23174, -0.126982, -0.284997, -0.0955887, 0.0333463, -0.21872, -0.23174, 0.210091, -0.219221, -0.159877, 0.210174, 0.284997, -0.0955887, 0.0333463, 0.21872, -0.23174, 0.210091, 0.285771, -0.23174, 0.109747, -0.11837, -0.23174, 0.277139, -0.121494, -0.164469, 0.278375, 0.219221, -0.159877, 0.210174, 0.11837, -0.23174, 0.277139, -1.30495e-08, -0.23174, 0.300683, -1.30495e-08, -0.166978, 0.303264, 0.121494, -0.164469, 0.278375, -1.30495e-08, -0.299216, 0.269302, 0.10636, -0.299216, 0.248146, -0.10636, -0.299216, 0.248146, 0.196529, -0.299216, 0.187901, -0.285771, -0.23174, 0.109747, -0.196529, -0.299216, 0.187901, 0.256777, -0.299216, 0.0977376, -0.31306, -0.230589, -0.00861748, -0.256777, -0.299216, 0.0977376, 0.313061, -0.230589, -0.00861748, 0.277933, -0.299216, -0.00861748, -0.277933, -0.299216, -0.00861748, -0.31306, -0.230589, -0.00861748, 0.277933, -0.299216, -0.00861748, 0.256777, -0.299216, -0.114973, -0.256777, -0.299216, -0.114973, 0.196529, -0.299216, -0.205136, -0.11837, -0.23174, -0.294374, -0.196529, -0.299216, -0.205136, 0.10636, -0.275591, -0.249317, -0.10636, -0.275591, -0.249317, -0.102484, -0.430198, -0.111096, 0.102484, -0.430198, -0.111096, 0.0554636, -0.430198, -0.142512, -0.133901, -0.430198, -0.0640784, 0.133901, -0.430198, -0.0640784, -0.144934, -0.430198, -0.00861748, 0.144934, -0.430198, -0.00861748, -0.277933, -0.299216, -0.00861748, -0.133901, -0.430198, 0.0468434, 0.133901, -0.430198, 0.0468434, 0.144934, -0.430198, -0.00861748, -0.102484, -0.430198, 0.0938609, 0.102484, -0.430198, 0.0938609, -0.0554637, -0.430198, 0.125277, 0.0554636, -0.430198, 0.125277, -1.30495e-08, -0.430198, 0.136309, -1.30495e-08, -0.457982, -0.00861748, -0.144934, -0.430198, -0.00861748, -1.30495e-08, -0.457982, -0.00861748, -1.30495e-08, -0.457982, -0.00861748, -0.0554636, -0.430198, -0.142512, -1.30495e-08, -0.430198, -0.153544, -1.30495e-08, -0.430198, -0.153544, -1.30495e-08, -0.063907, 0.254808, -0.119189, -0.0603395, 0.23227, -0.210816, -0.0520907, 0.183345, 0.119189, -0.0603395, 0.23227, 0.210816, -0.0520907, 0.183345, -1.30495e-08, -0.0524631, 0.251259, 0.074065, -0.0418917, 0.249189, -0.074065, -0.0418917, 0.249189, -0.105434, -0.00528663, 0.249694, 0.105434, -0.00528663, 0.249694, 0.118504, 0.0162485, 0.249859, -0.118504, 0.0162485, 0.249859, -0.0819072, 0.0433033, 0.249829, 0.0819072, 0.0433033, 0.249829, -0.0287546, 0.0599962, 0.249834, 0.0287546, 0.0599962, 0.249834, -1.30495e-08, 0.0688366, 0.251112, -0.0284108, -0.23174, -0.306146, 0.0284108, -0.23174, -0.306146, -1.30495e-08, -0.230097, -0.326135, 0.0225692, -0.276504, -0.259962, -0.0225693, -0.276504, -0.259962, -1.30495e-08, -0.279415, -0.271344, -1.30495e-08, -0.279415, -0.271344, -0.0260422, -0.27817, -0.285059, 0.0260422, -0.27817, -0.285059, 0.0282377, -0.284908, -0.314994, -1.30495e-08, -0.285229, -0.294988, -1.30495e-08, -0.285229, -0.294988, -0.0282377, -0.284908, -0.314994, -1.30495e-08, -0.283275, -0.334861, -0.0177288, -0.32383, -0.315552, 0.0177288, -0.32383, -0.315552, -1.30495e-08, -0.327296, -0.327598, -1.30495e-08, -0.328523, -0.302564, -1.30495e-08, -0.328523, -0.302564, 0.0163504, -0.313632, -0.297326, -0.0163504, -0.313632, -0.297326, -1.30495e-08, -0.334067, -0.314495, -0.271052, -0.0192869, -0.0699595, 0.271052, -0.0192869, -0.0699595, 0.284655, -0.0950708, -0.0531751, -0.27104, -0.030965, 0.0422815, 0.27104, -0.030965, 0.0422815, -0.311335, -0.00833362, -0.0111642, 0.311335, -0.00833362, -0.0111642, 0.304035, -0.0295369, -0.0592494, -0.273705, 0.0666783, -0.0111642, -0.303064, -0.0281675, 0.0362198, 0.303064, -0.0281675, 0.0362198, 0.311335, -0.00833362, -0.0111642, -0.334158, -0.148614, -0.00616519, -0.30416, -0.12942, -0.00616519, 0.334158, -0.148614, -0.00616519, 0.31771, -0.122545, 0.0333463, -0.30416, -0.12942, -0.00616519, -0.31761, -0.121578, -0.0531751, 0.30416, -0.12942, -0.00616519, 0.31761, -0.121578, -0.0531751, 0.334158, -0.148614, -0.00616519, -0.309322, -0.0731421, 0.0422815, 0.309322, -0.0731421, 0.0422815, -0.31771, -0.122545, 0.0333463, -0.304035, -0.0295369, -0.0592494, 0.308898, -0.0607959, -0.0699595, -0.308898, -0.0607959, -0.0699595, -0.363473, -0.0687534, -0.0111273, 0.363473, -0.0687534, -0.0111273, 0.362353, -0.0841186, -0.0494269, -0.311335, -0.00833362, -0.0111642, -0.362064, -0.0834503, 0.0266136, 0.362064, -0.0834503, 0.0266136, 0.363473, -0.0687534, -0.0111273, -0.362899, -0.166985, -0.0071457, 0.362899, -0.166985, -0.0071457, 0.36047, -0.148031, 0.0243249, -0.334158, -0.148614, -0.00616519, -0.361014, -0.148131, -0.0445888, 0.361014, -0.148131, -0.0445888, 0.362899, -0.166985, -0.0071457, -0.361341, -0.115689, 0.0314417, 0.361341, -0.115689, 0.0314417, -0.36047, -0.148031, 0.0243249, -0.362353, -0.0841186, -0.0494269, 0.362615, -0.106533, -0.0579574, -0.362615, -0.106533, -0.0579574, -0.405496, -0.114018, -0.011077, 0.405496, -0.114018, -0.011077, 0.40424, -0.126528, -0.0359784, -0.363473, -0.0687534, -0.0111273, -0.403855, -0.125656, 0.0134614, 0.403855, -0.125656, 0.0134614, 0.405496, -0.114018, -0.011077, -0.405909, -0.18545, -0.00848816, 0.405909, -0.18545, -0.00848816, 0.404733, -0.170631, 0.0114592, -0.362899, -0.166985, -0.0071457, -0.404606, -0.171075, -0.03268, 0.404606, -0.171075, -0.03268, 0.405909, -0.18545, -0.00848816, -0.403998, -0.148445, 0.0160379, 0.403998, -0.148445, 0.0160379, -0.404733, -0.170631, 0.0114592, -0.40424, -0.126528, -0.0359784, 0.404749, -0.143448, -0.040863, -0.404749, -0.143448, -0.040863, -0.433912, -0.140873, -0.0110532, 0.433912, -0.140873, -0.0110532, 0.433631, -0.152118, -0.0296508, -0.405496, -0.114018, -0.011077, -0.434758, -0.152588, 0.00727316, 0.434758, -0.152588, 0.00727316, 0.433912, -0.140873, -0.0110532, -0.435594, -0.198733, -0.00911978, 0.435594, -0.198733, -0.00911978, 0.437417, -0.19032, 0.00616173, -0.405909, -0.18545, -0.00848816, -0.436108, -0.18911, -0.0273015, 0.436108, -0.18911, -0.0273015, 0.435594, -0.198733, -0.00911978, -0.439433, -0.174887, 0.00961759, 0.439433, -0.174887, 0.00961759, -0.437417, -0.19032, 0.00616173, -0.433631, -0.152118, -0.0296508, 0.43503, -0.166249, -0.033793, -0.43503, -0.166249, -0.033793, -0.451149, -0.185807, -0.00911978, 0.451149, -0.185807, -0.00911978, -0.433912, -0.140873, -0.0110532, -0.451149, -0.185807, -0.00911978, 0.451149, -0.185807, -0.00911978, -0.435594, -0.198733, -0.00911978, -0.313841, -0.178501, -0.00739134, 0.313841, -0.178501, -0.00739134, 0.313061, -0.230589, -0.00861748, -0.313841, -0.178501, -0.00739134, 0.313841, -0.178501, -0.00739134, 0.30416, -0.12942, -0.00616519, -0.193441, -0.494579, 0.0471314, -0.129456, -0.489895, -0.00152091, -0.114352, -0.489895, 0.0471314, 0.114352, -0.489895, 0.0471314, 0.129456, -0.489895, -0.00152091, 0.193441, -0.494579, 0.0471314, -0.0564542, -0.484438, 0.0471314, 0.0564542, -0.484438, 0.0471314, 0.0826164, -0.484438, -0.0371368, -0.0826163, -0.484438, -0.0371368, -0.0352623, -0.46966, 0.0471314, 0.0352622, -0.46966, 0.0471314, 0.0654717, -0.46966, -0.0501731, -0.0654717, -0.46966, -0.0501731, -0.0564542, -0.401946, 0.0471314, -0.0352623, -0.46966, 0.0471314, 0.0654717, -0.46966, -0.0501731, 0.0564542, -0.401946, 0.0471314, 0.0826164, -0.401946, -0.0371368, -0.0826163, -0.401946, -0.0371368, -0.114352, -0.352376, 0.0471314, 0.114352, -0.352376, 0.0471314, 0.129456, -0.352376, -0.00152085, -0.129456, -0.352376, -0.00152085, -0.193441, -0.334232, 0.0471314, 0.193441, -0.334232, 0.0471314, -0.169001, -0.352376, -0.0315896, 0.169001, -0.352376, -0.0315896, -0.15111, -0.401946, -0.0892173, 0.15111, -0.401946, -0.0892173, -0.144561, -0.46966, -0.110311, 0.144561, -0.46966, -0.110311, -0.15111, -0.484438, -0.0892173, -0.0654717, -0.46966, -0.0501731, 0.15111, -0.484438, -0.0892173, 0.144561, -0.46966, -0.110311, -0.169001, -0.489895, -0.0315897, 0.169001, -0.489895, -0.0315897, -0.217881, -0.489895, -0.0315896, 0.217881, -0.489895, -0.0315896, 0.235772, -0.484438, -0.0892173, -0.235772, -0.484438, -0.0892173, -0.144561, -0.46966, -0.110311, 0.242321, -0.46966, -0.110311, -0.242321, -0.46966, -0.110311, 0.242321, -0.46966, -0.110311, 0.235772, -0.401946, -0.0892173, -0.235772, -0.401946, -0.0892173, 0.217881, -0.352376, -0.0315896, -0.217881, -0.352376, -0.0315896, -0.257426, -0.352376, -0.00152085, 0.257426, -0.352376, -0.00152085, -0.304266, -0.401946, -0.0371368, 0.304266, -0.401946, -0.0371368, -0.321411, -0.46966, -0.0501731, 0.321411, -0.46966, -0.0501731, -0.304266, -0.484438, -0.0371368, -0.242321, -0.46966, -0.110311, 0.304266, -0.484438, -0.0371368, 0.321411, -0.46966, -0.0501731, -0.257426, -0.489895, -0.00152091, 0.257426, -0.489895, -0.00152091, -0.272531, -0.489895, 0.0471314, 0.272531, -0.489895, 0.0471314, 0.330428, -0.484438, 0.0471314, -0.330428, -0.484438, 0.0471314, -0.321411, -0.46966, -0.0501731, 0.35162, -0.46966, 0.0471314, -0.35162, -0.46966, 0.0471314, 0.35162, -0.46966, 0.0471314, 0.330428, -0.401946, 0.0471314, -0.330428, -0.401946, 0.0471314, 0.272531, -0.352376, 0.0471314, -0.272531, -0.352376, 0.0471314, -0.257426, -0.352376, 0.0957836, 0.257426, -0.352376, 0.0957836, -0.304266, -0.401946, 0.1314, 0.304266, -0.401946, 0.1314, -0.32141, -0.46966, 0.144436, 0.32141, -0.46966, 0.144436, -0.304266, -0.484438, 0.1314, -0.35162, -0.46966, 0.0471314, 0.304266, -0.484438, 0.1314, 0.32141, -0.46966, 0.144436, -0.257426, -0.489895, 0.0957836, 0.257426, -0.489895, 0.0957836, -0.217881, -0.489895, 0.125852, 0.217881, -0.489895, 0.125852, 0.235772, -0.484438, 0.18348, -0.235772, -0.484438, 0.18348, -0.32141, -0.46966, 0.144436, 0.242321, -0.46966, 0.204573, -0.242321, -0.46966, 0.204573, 0.242321, -0.46966, 0.204573, 0.235772, -0.401946, 0.18348, -0.235772, -0.401946, 0.18348, 0.217881, -0.352376, 0.125852, -0.217881, -0.352376, 0.125852, -0.169001, -0.352376, 0.125852, 0.169001, -0.352376, 0.125852, -0.15111, -0.401946, 0.18348, 0.15111, -0.401946, 0.18348, -0.144561, -0.46966, 0.204573, 0.144561, -0.46966, 0.204573, -0.15111, -0.484438, 0.18348, -0.242321, -0.46966, 0.204573, 0.15111, -0.484438, 0.18348, 0.144561, -0.46966, 0.204573, -0.169001, -0.489895, 0.125852, 0.169001, -0.489895, 0.125852, -0.129456, -0.489895, 0.0957836, 0.129456, -0.489895, 0.0957836, 0.0826163, -0.484438, 0.131399, -0.0826163, -0.484438, 0.131399, -0.144561, -0.46966, 0.204573, 0.0654716, -0.46966, 0.144436, -0.0654716, -0.46966, 0.144436, 0.0654716, -0.46966, 0.144436, 0.0826163, -0.401946, 0.1314, -0.0826163, -0.401946, 0.1314, 0.129456, -0.352376, 0.0957836, -0.129456, -0.352376, 0.0957836, 0.0352622, -0.46966, 0.0471314, -0.0654716, -0.46966, 0.144436, -0.0434473, -0.016844, 0.317963, 0.0305208, -0.0319282, 0.317755, -0.0488334, -0.00796974, 0.318031, 0.0434473, -0.016844, 0.317963, -0.0337525, 0.00317904, 0.318019, 0.0488333, -0.00796974, 0.318031, -0.0118493, 0.0100579, 0.318021, 0.0337524, 0.00317904, 0.318019, -1.45096e-08, 0.0137009, 0.318548, 0.0118492, 0.0100579, 0.318021, -0.0305208, -0.0319282, 0.317755, -1.45096e-08, -0.0362845, 0.318608, -0.0244167, -0.0096308, 0.333634, -1.45096e-08, -0.0112918, 0.337702, 0.0244167, -0.0096308, 0.333634, 0.230239, 0.236619, -0.00861748),
		Vector3Array(0.0, 0.999969, 0.005768, -0.119724, 0.813471, 0.569109, 0.0, 0.802026, 0.597247, 0.119724, 0.813471, 0.569109, -0.369701, 0.852412, 0.369701, 0.369701, 0.852412, 0.369701, -0.483016, 0.852412, 0.200079, 0.483016, 0.852412, 0.200079, -0.522843, 0.852412, 0.0, 0.522843, 0.852412, 0.0, 0.0, 0.999969, 0.005768, -0.483016, 0.852412, -0.200079, -0.522843, 0.852412, 0.0, 0.522843, 0.852412, 0.0, 0.483016, 0.852412, -0.200079, -0.369701, 0.852412, -0.369701, 0.369701, 0.852412, -0.369701, -0.200079, 0.852412, -0.483047, 0.200079, 0.852412, -0.483047, 0.0, 0.852412, -0.522843, -0.228767, 0.389386, 0.892178, 0.0, 0.396344, 0.918088, 0.228767, 0.389386, 0.892178, -0.572405, 0.450392, 0.685171, 0.572405, 0.450392, 0.685171, -0.821223, 0.460158, 0.337321, 0.821223, 0.460158, 0.337321, -0.877224, 0.479873, 0.0110782, 0.877224, 0.479873, 0.0110782, -0.816157, 0.446242, -0.367046, -0.877224, 0.479873, 0.0110782, 0.816157, 0.446242, -0.367046, -0.64095, 0.459517, -0.614795, 0.64095, 0.459517, -0.614795, -0.336741, 0.47499, -0.812983, 0.336741, 0.47499, -0.812983, 0.0, 0.47499, -0.879971, -0.375164, 0.196936, -0.905789, 0.375164, 0.196936, -0.905789, 0.0, 0.196936, -0.980407, -0.739402, 0.200842, -0.642567, 0.739402, 0.200842, -0.642567, -0.853145, 0.267006, -0.448103, 0.853145, 0.267006, -0.448103, -0.947722, 0.318339, 0.0208747, 0.947722, 0.318339, 0.0208747, -0.845424, 0.263588, 0.464492, 0.845424, 0.263588, 0.464492, 0.947722, 0.318339, 0.0208747, -0.751946, 0.21012, 0.624805, 0.751946, 0.21012, 0.624805, -0.347789, 0.386425, 0.854213, 0.347789, 0.386425, 0.854213, 0.0, 0.468947, 0.883206, -0.735984, 0.104251, -0.668905, 0.735984, 0.104251, -0.668905, 0.372631, 0.0760826, -0.924833, -0.372631, 0.0760826, -0.924833, 0.0, 0.0678732, -0.997681, -0.690481, -0.215339, -0.690512, 0.690481, -0.215339, -0.690512, 0.294992, -0.352763, -0.887967, -0.910428, -0.142613, -0.388287, -0.522446, -0.171758, -0.83517, 0.910428, -0.142613, -0.388287, -0.540788, -0.0831629, 0.837001, -0.720603, -0.181768, 0.669088, -0.758904, 0.112491, 0.641377, 0.540788, -0.0831629, 0.837001, 0.720603, -0.181768, 0.669088, 0.899228, -0.095645, 0.426832, -0.374126, -0.224494, 0.899777, -0.376141, 0.176153, 0.909635, 0.758904, 0.112491, 0.641377, 0.374126, -0.224494, 0.899777, 0.0, -0.228095, 0.973632, 0.0, 0.189978, 0.98178, 0.376141, 0.176153, 0.909635, 0.0, -0.566057, 0.824335, 0.315439, -0.566057, 0.761589, -0.315439, -0.566057, 0.761589, 0.582873, -0.566057, 0.582904, -0.899228, -0.095645, 0.426832, -0.582873, -0.566057, 0.582904, 0.758049, -0.568926, 0.318796, -0.973144, -0.23011, -0.00491348, -0.758049, -0.568926, 0.318796, 0.973144, -0.23011, -0.00491348, 0.814875, -0.579577, -0.00436415, -0.814875, -0.579577, -0.00436415, -0.973144, -0.23011, -0.00491348, 0.814875, -0.579577, -0.00436415, 0.761559, -0.566088, -0.31547, -0.761559, -0.566088, -0.31547, 0.510666, -0.594531, -0.621052, -0.294992, -0.352763, -0.887967, -0.510666, -0.594531, -0.621052, 0.141758, -0.682516, -0.716971, -0.141758, -0.682516, -0.716971, -0.345103, -0.857295, -0.38197, 0.345103, -0.857295, -0.38197, 0.208502, -0.828089, -0.52031, -0.454878, -0.870357, -0.188421, 0.454878, -0.870357, -0.188421, -0.492355, -0.870357, 0.0, 0.492355, -0.870357, 0.0, -0.814875, -0.579577, -0.00436415, -0.454878, -0.870357, 0.188421, 0.454878, -0.870357, 0.188421, 0.492355, -0.870357, 0.0, -0.348155, -0.870357, 0.348155, 0.348155, -0.870357, 0.348155, -0.188421, -0.870357, 0.454909, 0.188421, -0.870357, 0.454909, 0.0, -0.870357, 0.492386, 0.0, -0.999969, 0.0, -0.492355, -0.870357, 0.0, 0.0, -0.999969, 0.0, 0.0, -0.999969, 0.0, -0.208502, -0.828089, -0.52031, 0.0, -0.823359, -0.567492, 0.0, -0.823359, -0.567492, 0.0, 0.361034, 0.932524, -0.371715, 0.0817286, 0.924711, -0.752617, 0.158666, 0.638997, 0.371715, 0.0817286, 0.924711, 0.752617, 0.158666, 0.638997, 0.0, -0.50264, 0.864467, 0.31489, -0.599719, 0.735618, -0.31489, -0.599719, 0.735618, -0.553606, -0.361187, 0.750328, 0.553606, -0.361187, 0.750328, 0.564959, 0.190039, 0.802911, -0.564959, 0.190039, 0.802911, -0.33195, 0.645833, 0.687521, 0.33195, 0.645833, 0.687521, -0.225379, 0.741356, 0.632099, 0.225379, 0.741356, 0.632099, 0.0, 0.780969, 0.624531, -0.500443, -0.162877, -0.850276, 0.500443, -0.162877, -0.850276, 0.0, 0.135014, -0.990814, 0.358165, -0.739769, -0.569567, -0.358165, -0.739769, -0.569567, 0.0, -0.984283, -0.176519, 0.0, -0.984283, -0.176519, -0.847041, -0.433241, 0.30784, 0.847041, -0.433241, 0.30784, 0.906827, -0.102542, -0.408765, 0.0, -0.59682, 0.802362, 0.0, -0.59682, 0.802362, -0.906827, -0.102542, -0.408765, 0.0, 0.00170904, -0.999969, -0.785211, -0.583453, -0.207343, 0.785211, -0.583453, -0.207343, 0.0, -0.550218, -0.834986, 0.0, -0.757927, 0.652303, 0.0, -0.757927, 0.652303, 0.559832, -0.470077, 0.682333, -0.559832, -0.470077, 0.682333, 0.0, -0.999817, 0.0176092, -0.661519, 0.184851, -0.726768, 0.661519, 0.184851, -0.726768, 0.522446, -0.171758, -0.83517, -0.581866, 0.127659, 0.803156, 0.581866, 0.127659, 0.803156, -0.827937, 0.560381, -0.0210273, 0.827937, 0.560381, -0.0209967, 0.59209, 0.463973, -0.658895, -0.947722, 0.318339, 0.0208747, -0.531388, 0.377819, 0.758171, 0.531388, 0.377819, 0.758171, 0.827937, 0.560381, -0.0209967, 0.53383, -0.845546, 0.0044557, -0.601154, -0.786981, 0.138676, -0.53383, -0.845546, 0.0044557, -0.318796, -0.563097, 0.762383, -0.601154, -0.786981, 0.138676, 0.340739, -0.608081, -0.717002, 0.601154, -0.786981, 0.138676, -0.340739, -0.608081, -0.717002, -0.53383, -0.845546, 0.0044557, -0.0600299, -0.0313425, 0.997681, 0.0600299, -0.0313425, 0.997681, 0.318796, -0.563097, 0.762383, -0.59209, 0.463973, -0.658895, 0.117374, 0.0312815, -0.992584, -0.117374, 0.0312815, -0.992584, -0.741386, 0.670919, -0.0121158, 0.741386, 0.670919, -0.0121158, 0.624043, 0.512619, -0.589709, -0.827937, 0.560381, -0.0210273, -0.578082, 0.426099, 0.695853, 0.578082, 0.426099, 0.695853, 0.741386, 0.670919, -0.0121158, 0.438368, -0.898556, 0.0191351, -0.438368, -0.898587, 0.0191351, -0.127171, -0.572924, 0.809656, 0.53383, -0.845546, 0.0044557, 0.197089, -0.639149, -0.74337, -0.197089, -0.639149, -0.74337, -0.438368, -0.898587, 0.0191351, -0.231544, -0.0445265, 0.971801, 0.231544, -0.0445265, 0.971801, 0.127171, -0.572924, 0.809656, -0.624043, 0.512619, -0.589709, 0.298654, 0.00387585, -0.954344, -0.298654, 0.00387585, -0.954344, -0.722953, 0.690817, 0.00912503, 0.722953, 0.690817, 0.00912503, 0.624836, 0.471938, -0.621937, -0.741386, 0.670919, -0.0121158, -0.574541, 0.422437, 0.70098, 0.574541, 0.422437, 0.70098, 0.722953, 0.690817, 0.00912503, 0.394269, -0.917753, 0.0475478, -0.394269, -0.917753, 0.0475478, -0.103916, -0.538041, 0.836451, 0.438368, -0.898556, 0.0191351, 0.177557, -0.609272, -0.77279, -0.177557, -0.609272, -0.77279, -0.394269, -0.917753, 0.0475478, -0.23133, -0.0430921, 0.971892, 0.23133, -0.0430921, 0.971892, 0.103916, -0.538041, 0.836451, -0.624836, 0.471938, -0.621937, 0.284738, -0.0189825, -0.958403, -0.284738, -0.0189825, -0.958403, -0.798883, 0.601428, -0.00408948, 0.798883, 0.601428, -0.00408948, 0.717612, 0.400861, -0.569445, -0.722953, 0.690817, 0.00912503, -0.688681, 0.376385, 0.619678, 0.688681, 0.376385, 0.619678, 0.798883, 0.601428, -0.00408948, -0.0938139, -0.995514, 0.00985748, 0.0938139, -0.995514, 0.00985748, 0.234901, -0.639546, 0.731956, 0.394269, -0.917753, 0.0475478, -0.262825, -0.627705, -0.732688, 0.262825, -0.627705, -0.732688, 0.0938139, -0.995514, 0.00985748, -0.55327, -0.0244453, 0.832606, 0.55327, -0.0244453, 0.832606, -0.234901, -0.639546, 0.731956, -0.717612, 0.400861, -0.569445, 0.537736, -0.00964385, -0.843043, -0.537736, -0.00964385, -0.843043, -0.962218, -0.272195, -0.00396741, 0.962218, -0.272195, -0.00396741, -0.798883, 0.601428, -0.00408948, -0.962218, -0.272195, -0.00396741, 0.962218, -0.272195, -0.00396741, -0.0938139, -0.995514, 0.00985748, -0.994049, 0.108676, 0.00598163, 0.994049, 0.108676, 0.00598163, 0.973144, -0.23011, -0.00491348, -0.994049, 0.108676, 0.00598163, 0.994049, 0.108676, 0.00598163, 0.601154, -0.786981, 0.138676, 0.0, -1.0, 0.0, 0.0647298, -0.996887, -0.0447707, 0.0798059, -0.996796, 0.0, -0.0798059, -0.996796, 0.0, -0.0647298, -0.996887, -0.0447707, 0.0, -1.0, 0.0, 0.385723, -0.922605, 0.0, -0.385723, -0.922605, 0.0, -0.31489, -0.923887, -0.217322, 0.31489, -0.923887, -0.217322, 0.955901, -0.293588, 0.0, -0.955901, -0.293588, 0.0, -0.781213, -0.293893, -0.550707, 0.781213, -0.293893, -0.550707, 0.849391, 0.527757, 0.0, 0.955901, -0.293588, 0.0, -0.781213, -0.293893, -0.550707, -0.849391, 0.527757, 0.0, -0.693594, 0.531907, -0.485733, 0.693594, 0.531907, -0.485733, 0.484939, 0.874538, 0.0, -0.484939, 0.874538, 0.0, -0.395337, 0.876705, -0.273934, 0.395337, 0.876705, -0.273934, 0.0, 1.0, 0.0, 0.0, 1.0, 0.0, 0.152928, 0.880306, -0.449019, -0.152928, 0.880306, -0.449019, 0.269051, 0.538713, -0.798334, -0.269051, 0.538713, -0.798334, 0.303354, -0.294137, -0.906308, -0.303354, -0.294137, -0.906308, 0.122105, -0.926054, -0.357006, 0.781213, -0.293893, -0.550707, -0.122105, -0.926054, -0.357006, -0.303354, -0.294137, -0.906308, 0.0248115, -0.99704, -0.0727561, -0.0248115, -0.99704, -0.0727561, -0.0248115, -0.99704, -0.0727561, 0.0248115, -0.99704, -0.0727561, 0.122105, -0.926054, -0.357006, -0.122105, -0.926054, -0.357006, 0.303354, -0.294137, -0.906308, 0.303354, -0.294137, -0.906308, -0.303354, -0.294137, -0.906308, 0.303354, -0.294137, -0.906308, 0.269051, 0.538713, -0.798334, -0.269051, 0.538713, -0.798334, 0.152928, 0.880306, -0.449019, -0.152928, 0.880306, -0.449019, -0.395337, 0.876705, -0.273934, 0.395337, 0.876705, -0.273934, -0.693594, 0.531907, -0.485733, 0.693594, 0.531907, -0.485733, -0.781213, -0.293893, -0.550707, 0.781213, -0.293893, -0.550707, -0.31489, -0.923887, -0.217322, -0.303354, -0.294137, -0.906308, 0.31489, -0.923887, -0.217322, 0.781213, -0.293893, -0.550707, -0.0647298, -0.996887, -0.0447707, 0.0647298, -0.996887, -0.0447707, -0.0798059, -0.996796, 0.0, 0.0798059, -0.996796, 0.0, 0.385723, -0.922605, 0.0, -0.385723, -0.922605, 0.0, -0.781213, -0.293893, -0.550707, 0.955901, -0.293588, 0.0, -0.955901, -0.293588, 0.0, 0.955901, -0.293588, 0.0, 0.849391, 0.527757, 0.0, -0.849391, 0.527726, 0.0, 0.484939, 0.874538, 0.0, -0.484939, 0.874538, 0.0, -0.395306, 0.876705, 0.273934, 0.395337, 0.876705, 0.273934, -0.693594, 0.531907, 0.485733, 0.693594, 0.531907, 0.485733, -0.781213, -0.293893, 0.550707, 0.781213, -0.293893, 0.550707, -0.31489, -0.923887, 0.217322, -0.955901, -0.293588, 0.0, 0.31489, -0.923887, 0.217322, 0.781213, -0.293893, 0.550707, -0.0647298, -0.996887, 0.0447707, 0.0647298, -0.996887, 0.0447707, -0.0248115, -0.99704, 0.0727561, 0.0248115, -0.99704, 0.0727561, 0.122105, -0.926054, 0.357006, -0.122105, -0.926054, 0.357006, -0.781213, -0.293893, 0.550707, 0.303354, -0.294137, 0.906308, -0.303354, -0.294137, 0.906308, 0.303354, -0.294137, 0.906308, 0.269051, 0.538713, 0.798334, -0.269051, 0.538713, 0.798334, 0.152928, 0.880306, 0.449019, -0.152928, 0.880306, 0.449019, 0.152928, 0.880306, 0.449019, -0.152928, 0.880306, 0.449019, 0.269051, 0.538713, 0.798334, -0.269051, 0.538713, 0.798334, 0.303354, -0.294137, 0.906308, -0.303354, -0.294137, 0.906308, 0.122105, -0.926054, 0.357006, -0.303354, -0.294137, 0.906308, -0.122105, -0.926054, 0.357006, -0.303354, -0.294137, 0.906308, 0.0248115, -0.99704, 0.0727561, -0.0248115, -0.99704, 0.0727561, 0.0647298, -0.996887, 0.0447707, -0.0647298, -0.996887, 0.0447707, -0.31489, -0.923887, 0.217322, 0.31489, -0.923887, 0.217322, 0.303354, -0.294137, 0.906308, -0.781213, -0.293893, 0.550707, 0.781213, -0.293893, 0.550707, -0.781213, -0.293893, 0.550707, -0.693594, 0.531907, 0.485733, 0.693594, 0.531907, 0.485733, -0.395306, 0.876705, 0.273934, 0.395306, 0.876705, 0.273934, -0.955901, -0.293588, 0.0, 0.781213, -0.293893, 0.550707, -0.60094, -0.453719, 0.657979, 0.335337, -0.741813, 0.580706, -0.636494, 0.0784631, 0.767266, 0.60094, -0.453719, 0.657979, -0.326792, 0.663961, 0.672536, 0.636494, 0.0784631, 0.767266, -0.215125, 0.698477, 0.682485, 0.326823, 0.663961, 0.672536, 0.0, 0.705191, 0.708975, 0.215125, 0.698477, 0.682485, -0.335337, -0.741813, 0.580706, 0.0, -0.836329, 0.548173, -0.299661, 0.0772729, 0.950896, 0.0, -0.00430311, 0.999969, 0.299661, 0.0772729, 0.950896, 0.877224, 0.479873, 0.0110782),
		FloatArray(1.0, -3.90649e-06, 0.00067675, 1.0, 0.988885, 0.0468147, 0.141118, 1.0, 1.0, -0.000355089, 0.000476839, 1.0, 0.988995, -0.047541, -0.140102, 1.0, 0.90444, 0.23901, 0.353358, 1.0, 0.904724, -0.239633, -0.352208, 1.0, 0.825562, 0.367229, 0.428474, 1.0, 0.825971, -0.36775, -0.427238, 1.0, 0.766119, 0.469911, 0.438458, 1.0, 0.766625, -0.470222, -0.437239, 1.0, 1.0, -1.21317e-08, 2.07614e-06, 1.0, 0.849238, 0.400435, -0.344162, 1.0, 0.789552, 0.484285, -0.37693, 1.0, 0.789551, -0.484284, 0.376934, 1.0, 0.849237, -0.400433, 0.344166, 1.0, 0.91802, 0.27372, -0.28691, 1.0, 0.918019, -0.273718, 0.286913, 1.0, 0.977032, 0.136694, -0.163472, 1.0, 0.977032, -0.136693, 0.163474, 1.0, 1.0, 9.42542e-07, 1.53916e-06, 1.0, 0.973195, 0.0693208, 0.219286, 1.0, 1.0, -0.000587309, 0.000253545, 1.0, 0.973225, -0.0705251, -0.218768, 1.0, 0.818052, 0.256666, 0.514698, 1.0, 0.818126, -0.257814, -0.514005, 1.0, 0.54047, 0.437903, 0.718424, 1.0, 0.540718, -0.438951, -0.717597, 1.0, 0.331893, 0.589687, 0.736285, 1.0, 0.332339, -0.590524, -0.735412, 1.0, 0.569089, 0.51086, -0.644329, 1.0, 0.343491, 0.643676, -0.683883, 1.0, 0.569089, -0.510858, 0.644331, 1.0, 0.767267, 0.361141, -0.529979, 1.0, 0.767267, -0.361139, 0.52998, 1.0, 0.941591, 0.172247, -0.289375, 1.0, 0.941591, -0.172247, 0.289375, 1.0, 1.0, 1.88281e-07, 1.02591e-07, 1.0, 0.923558, 0.163025, -0.347079, 1.0, 0.923558, -0.163029, 0.347078, 1.0, 1.0, -3.02662e-06, -6.1234e-07, 1.0, 0.666933, 0.348891, -0.658389, 1.0, 0.666932, -0.348892, 0.658388, 1.0, 0.520103, 0.501249, -0.691551, 1.0, 0.520103, -0.501244, 0.691554, 1.0, 0.214249, 0.683552, -0.697749, 1.0, 0.214247, -0.683546, 0.697756, 1.0, 0.526204, 0.262319, 0.808887, 1.0, 0.526333, -0.263633, -0.808376, 1.0, 0.191447, -0.515115, -0.835467, 1.0, 0.657752, 0.176257, 0.732322, 1.0, 0.657817, -0.177689, -0.731918, 1.0, 0.932984, 0.0526393, 0.356048, 1.0, 0.93311, -0.053897, -0.35553, 1.0, 1.0, -0.000585406, 0.000310828, 1.0, 0.671684, 0.235893, -0.702278, 1.0, 0.671684, -0.235903, 0.702276, 1.0, 0.909711, -0.226718, 0.347887, 1.0, 0.909713, 0.226706, -0.347889, 1.0, 1.0, -6.20575e-06, -4.26496e-07, 1.0, 0.662562, 0.194714, -0.723255, 1.0, 0.662558, -0.194728, 0.723255, 1.0, 0.851152, -0.325279, 0.411986, 1.0, 0.378986, 0.0885781, -0.921153, 1.0, 0.754352, 0.363492, -0.546651, 1.0, 0.378984, -0.0885929, 0.921153, 1.0, 0.83406, 0.0758632, 0.546433, 1.0, 0.693072, -0.161869, 0.702459, 1.0, 0.640356, -0.0499299, 0.766453, 1.0, 0.833886, -0.0774346, -0.546477, 1.0, 0.693044, 0.160472, -0.702808, 1.0, 0.434491, 0.308243, -0.846288, 1.0, 0.927249, -0.0745476, 0.366949, 1.0, 0.921944, -0.0267085, 0.386402, 1.0, 0.640552, 0.0482837, -0.766396, 1.0, 0.927227, 0.0732021, -0.367276, 1.0, 1.0, -0.000676314, -0.000158441, 1.0, 1.0, -0.000674524, 0.000130524, 1.0, 0.92207, 0.0253484, -0.386191, 1.0, 1.0, -0.000550157, -0.000377787, 1.0, 0.943636, 0.102358, -0.314762, 1.0, 0.943772, -0.103477, 0.313986, 1.0, 0.79092, 0.230843, -0.566707, 1.0, 0.434427, -0.309433, 0.845887, 1.0, 0.791184, -0.231968, 0.565878, 1.0, 0.586065, 0.379832, -0.71572, 1.0, 0.101926, -0.449978, 0.887204, 1.0, 0.586488, -0.380912, 0.714799, 1.0, 0.101656, 0.448849, -0.887807, 1.0, 0.378799, 0.538241, -0.752867, 1.0, 0.0922484, -0.122244, -0.988204, 1.0, 0.0155428, -0.0443863, -0.998893, 1.0, 0.0922371, 0.122228, 0.988207, 1.0, 0.358806, -0.0370599, 0.932676, 1.0, 0.358816, 0.0370446, -0.932673, 1.0, 0.631542, -0.230766, 0.740204, 1.0, 0.851159, 0.325267, -0.411983, 1.0, 0.631552, 0.230753, -0.740199, 1.0, 0.767689, -0.381463, 0.514917, 1.0, 0.7677, 0.381452, -0.514909, 1.0, 0.541709, 0.150407, -0.827, 1.0, 0.541694, -0.150416, 0.827008, 1.0, 0.612807, -0.304012, 0.729414, 1.0, 0.411563, -0.017832, -0.911207, 1.0, 0.411547, 0.0178224, 0.911214, 1.0, 0.292182, -0.165278, -0.941973, 1.0, 0.292166, 0.165269, 0.94198, 1.0, 0.379423, -0.539112, 0.751928, 1.0, 0.836729, -0.345285, 0.425045, 1.0, 0.83629, 0.344781, -0.426315, 1.0, 0.785937, 0.444594, -0.429696, 1.0, 0.910504, -0.225592, 0.346542, 1.0, 0.910204, 0.225005, -0.347709, 1.0, 0.975228, -0.111171, 0.191237, 1.0, 0.97508, 0.110564, -0.192338, 1.0, 1.0, -0.000302766, -0.000535176, 1.0, 1.0, -3.89705e-09, -0.000711377, 1.0, 0.78646, -0.44489, 0.428431, 1.0, 0.474546, 3.18605e-06, -0.880231, 1.0, 0.474528, -3.18605e-06, 0.88024, 1.0, 0.612821, 0.304003, -0.729405, 1.0, 0.622894, 0.443957, -0.644131, 1.0, 0.622879, -0.443964, 0.644141, 1.0, 1.0, -0.000672968, 0.00026054, 1.0, 0.928208, 0.015792, 0.371726, 1.0, 0.652009, 0.0444435, 0.756907, 1.0, 0.928229, -0.0171682, -0.371613, 1.0, 0.652149, -0.0459555, -0.756697, 1.0, 0.999934, -0.00993323, -0.00577626, 1.0, 0.926348, 0.0254202, -0.37581, 1.0, 0.922023, -0.00939652, 0.387022, 1.0, 0.812891, -0.0387221, 0.581127, 1.0, 0.816027, 0.0555517, -0.575338, 1.0, 0.819136, -0.012276, -0.573468, 1.0, 0.820032, 0.0215098, 0.571913, 1.0, 0.902796, 0.00624363, 0.430024, 1.0, 0.898854, 0.00451206, -0.438224, 1.0, 0.961008, 0.0624847, 0.269369, 1.0, 0.961459, -0.0643822, -0.267304, 1.0, 0.999999, -0.000712211, 0.000890599, 1.0, 0.850855, 0.088924, -0.51782, 1.0, 0.850853, -0.0889398, 0.517822, 1.0, 1.0, -1.01088e-05, -1.35965e-06, 1.0, 0.554786, -0.322037, 0.767141, 1.0, 0.554801, 0.322025, -0.767135, 1.0, 0.142619, 0.174713, -0.974236, 1.0, 0.142598, -0.174714, 0.974239, 1.0, -0.133854, -0.386639, -0.912466, 1.0, -0.133862, 0.386625, 0.91247, 1.0, 0.4178, 0.346072, 0.840046, 1.0, -0.0209492, -0.802194, -0.596695, 1.0, -0.0209667, 0.802194, 0.596695, 1.0, 0.417799, -0.346088, -0.84004, 1.0, 1.0, -7.99447e-06, 1.82869e-10, 1.0, 0.526883, -0.453661, -0.718739, 1.0, 0.52688, 0.453654, 0.718745, 1.0, 1.0, -1.60527e-06, 1.06295e-06, 1.0, 0.130838, -0.646716, -0.751425, 1.0, 0.130828, 0.646717, 0.751426, 1.0, -0.282178, 0.666113, 0.690412, 1.0, -0.282157, -0.666129, -0.690406, 1.0, 1.0, 2.46802e-08, 2.41971e-06, 1.0, 0.731062, 0.374929, -0.570067, 1.0, 0.731062, -0.374926, 0.570069, 1.0, 0.754348, -0.363501, 0.54665, 1.0, 0.813234, 0.0822753, 0.576091, 1.0, 0.813245, -0.0838218, -0.575853, 1.0, 0.476402, 0.683068, -0.553588, 1.0, 0.476384, -0.683072, 0.553598, 1.0, 0.794738, -0.471613, 0.382064, 1.0, 0.191086, 0.513987, 0.836243, 1.0, 0.847062, 0.226611, 0.480763, 1.0, 0.847074, -0.227768, -0.480195, 1.0, 0.36306, -0.564162, -0.741559, 1.0, 0.82822, 0.521811, -0.204365, 1.0, 0.740516, -0.483327, 0.466938, 1.0, 0.828446, -0.52196, 0.203062, 1.0, 0.930756, -0.337941, 0.139601, 1.0, 0.565654, -0.541572, -0.621881, 1.0, 0.831007, 0.551479, -0.0727864, 1.0, 0.565625, 0.541557, 0.62192, 1.0, 0.831005, -0.551482, 0.0727902, 1.0, 0.835324, -0.526546, 0.158057, 1.0, 0.99144, 0.114226, 0.063242, 1.0, 0.99129, -0.115505, -0.0632732, 1.0, 0.930975, 0.337016, -0.140376, 1.0, 0.794736, 0.471624, -0.382055, 1.0, 0.883502, -0.459702, 0.0899878, 1.0, 0.883498, 0.45971, -0.089987, 1.0, 0.601068, 0.655938, -0.456578, 1.0, 0.60106, -0.655929, 0.4566, 1.0, 0.775154, -0.501244, 0.384566, 1.0, 0.362469, 0.563365, 0.742453, 1.0, 0.81466, 0.253129, 0.52178, 1.0, 0.81472, -0.254268, -0.521132, 1.0, 0.468264, -0.53019, -0.706843, 1.0, 0.896724, 0.435829, -0.0770712, 1.0, 0.896804, -0.435883, 0.0758255, 1.0, 0.963277, -0.265964, -0.0369003, 1.0, 0.835328, 0.526548, -0.158034, 1.0, 0.837351, 0.504121, -0.211438, 1.0, 0.837349, -0.504123, 0.21144, 1.0, 0.877987, -0.423571, 0.222995, 1.0, 0.96052, 0.147911, 0.235633, 1.0, 0.960312, -0.149242, -0.235645, 1.0, 0.963564, 0.265019, 0.036187, 1.0, 0.775152, 0.501257, -0.384552, 1.0, 0.838356, -0.478899, 0.260412, 1.0, 0.838352, 0.478908, -0.26041, 1.0, 0.605299, 0.639707, -0.473697, 1.0, 0.605286, -0.639694, 0.47373, 1.0, 0.773334, -0.483619, 0.409959, 1.0, 0.467629, 0.529505, 0.707777, 1.0, 0.817749, 0.26063, 0.513184, 1.0, 0.817792, -0.261726, -0.512558, 1.0, 0.496946, -0.510786, -0.701528, 1.0, 0.915925, 0.396655, 0.0612018, 1.0, 0.915843, -0.396676, -0.0622915, 1.0, 0.943918, -0.31837, -0.0875227, 1.0, 0.877982, 0.423591, -0.222978, 1.0, 0.82969, 0.514995, -0.215395, 1.0, 0.829693, -0.514991, 0.215392, 1.0, 0.875301, -0.359266, 0.323692, 1.0, 0.950089, 0.204936, 0.235227, 1.0, 0.949829, -0.206147, -0.235219, 1.0, 0.944269, 0.317492, 0.086914, 1.0, 0.773331, 0.483642, -0.409939, 1.0, 0.850681, -0.455874, 0.261763, 1.0, 0.850673, 0.455891, -0.261761, 1.0, 0.490895, 0.648083, -0.582246, 1.0, 0.490879, -0.648062, 0.582282, 1.0, 0.692735, -0.494851, 0.524633, 1.0, 0.496294, 0.510092, 0.702494, 1.0, 0.706433, 0.155914, 0.690394, 1.0, 0.706681, -0.157307, -0.689824, 1.0, 0.332549, -0.447345, -0.830237, 1.0, 0.899732, -0.0805207, 0.428952, 1.0, 0.899267, 0.0804671, -0.429935, 1.0, 0.876319, -0.186486, -0.44417, 1.0, 0.875302, 0.359266, -0.323689, 1.0, 0.621965, 0.47034, -0.626051, 1.0, 0.621979, -0.470329, 0.626046, 1.0, 0.551112, 0.0601469, 0.832261, 1.0, 0.827454, 0.0989243, 0.552751, 1.0, 0.827297, -0.100542, -0.552694, 1.0, 0.87689, 0.185472, 0.443467, 1.0, 0.692733, 0.49488, -0.52461, 1.0, 0.715676, -0.523371, 0.462483, 1.0, 0.715663, 0.523396, -0.462475, 1.0, 0.0152824, -0.0684953, 0.997534, 1.0, 0.0148882, 0.0671032, -0.997635, 1.0, 0.331813, 0.446373, 0.831054, 1.0, -0.068794, 0.257307, -0.963878, 1.0, -0.0687849, -0.257275, 0.963887, 1.0, 0.551108, -0.0601465, -0.832264, 1.0, -0.0125734, -0.0601216, -0.998112, 1.0, -0.0125711, 0.0601004, 0.998113, 1.0, 0.0155386, 0.0443684, 0.998894, 1.0, -0.0351597, -0.372689, 0.92729, 1.0, -0.0350349, 0.371572, -0.927743, 1.0, 0.74003, 0.482707, -0.468347, 1.0, 0.954794, 0.0, 0.297269, 1.0, 0.953303, 0.0485122, 0.298095, 1.0, 0.952278, 0.0762417, 0.295557, 1.0, 0.99681, -0.079807, -0.00118631, 1.0, 0.997903, -0.0646358, -0.00356057, 1.0, 0.999998, 0.0, -0.00210949, 1.0, 0.878483, 0.367277, 0.305575, 1.0, 0.922608, -0.385725, 0.00320218, 1.0, 0.949013, -0.310023, -0.0570973, 1.0, 0.911107, 0.230095, 0.341965, 1.0, 0.270935, 0.881997, 0.385584, 1.0, 0.293619, -0.955841, -0.0125182, 1.0, 0.570968, -0.693097, -0.440014, 1.0, 0.580104, 0.0159879, 0.814385, 1.0, 0.292247, -0.470353, 0.832683, 1.0, -0.14949, -0.48681, 0.860621, 1.0, -0.240437, 0.955847, -0.168954, 1.0, 0.441601, 0.710728, 0.54759, 1.0, 0.48407, 0.843565, 0.232539, 1.0, 0.576061, -0.00473379, 0.817393, 1.0, 0.520176, -0.288442, 0.803877, 1.0, 0.734357, 0.407207, 0.54305, 1.0, 0.745088, 0.480513, 0.462548, 1.0, 0.604779, -0.0239886, 0.796032, 1.0, 0.614541, 0.0, 0.788885, 1.0, 0.827411, 0.0, 0.561597, 1.0, 0.628687, 0.263905, 0.73151, 1.0, 0.812571, 0.370619, 0.449855, 1.0, 0.671618, 0.489181, 0.556446, 1.0, 0.738702, 0.647324, 0.187859, 1.0, 0.875612, 0.461231, 0.143419, 1.0, 0.532747, 0.736275, -0.417229, 1.0, 0.953931, 0.0101829, 0.299854, 1.0, 0.619238, 0.47649, 0.624101, 1.0, 0.992471, -0.117399, -0.034922, 1.0, 0.942945, -0.22965, -0.241071, 1.0, 0.954273, 0.0019336, 0.298932, 1.0, 0.99969, -0.0245972, -0.00384142, 1.0, 0.95388, -0.045391, 0.296736, 1.0, 0.999684, 0.0250404, -0.00223381, 1.0, 0.992416, 0.119038, 0.0306513, 1.0, 0.945778, -0.217653, 0.241102, 1.0, 0.949567, 0.0141267, 0.313247, 1.0, 0.941838, 0.23693, 0.238337, 1.0, 0.327826, 0.8609, -0.389079, 1.0, 0.9438, 0.223692, 0.243319, 1.0, 0.876849, 0.20589, 0.434447, 1.0, 0.445271, 0.804599, 0.392879, 1.0, 0.842835, 0.121053, 0.524381, 1.0, 0.561109, 0.451383, 0.693837, 1.0, 0.494928, 0.454571, 0.740548, 1.0, 0.80228, -0.184374, 0.567761, 1.0, 0.226476, 0.801165, 0.553935, 1.0, 0.692743, -0.307686, 0.652255, 1.0, -0.370372, 0.928399, 0.0300119, 1.0, 0.488732, -0.260901, 0.832509, 1.0, 0.901534, -0.362758, 0.235889, 1.0, 0.874678, -0.463324, -0.142369, 1.0, 0.949056, 0.309288, 0.0602858, 1.0, 0.566964, 0.703276, 0.4289, 1.0, 0.952524, -0.0751003, 0.295057, 1.0, 0.997897, 0.0648204, -0.000559264, 1.0, 0.95224, -0.0762387, 0.29568, 1.0, 0.996809, 0.079807, -0.00131824, 1.0, 0.922608, 0.385725, 0.00336104, 1.0, 0.878558, -0.367308, 0.305321, 1.0, 0.443659, -0.882057, -0.158561, 1.0, 0.293621, 0.955847, -0.0120023, 1.0, -0.149977, 0.488396, 0.859637, 1.0, -0.211692, -0.689368, 0.69279, 1.0, 0.441599, -0.710726, 0.547594, 1.0, 0.294277, 0.473647, 0.830096, 1.0, 0.734355, -0.407206, 0.543053, 1.0, 0.521759, 0.28932, 0.802534, 1.0, 0.610372, 0.0278668, 0.791624, 1.0, 0.745086, -0.480513, 0.462551, 1.0, 0.582815, 0.0180971, 0.812403, 1.0, 0.484065, -0.843566, 0.232546, 1.0, 0.577056, -0.00355062, 0.816697, 1.0, -0.240445, -0.955848, -0.168944, 1.0, 0.912058, -0.231194, 0.338673, 1.0, 0.270988, -0.882168, 0.385155, 1.0, 0.948958, 0.310782, -0.0537925, 1.0, 0.569593, 0.696652, -0.436165, 1.0, 0.953877, -0.0486331, 0.296233, 1.0, 0.997903, 0.0646917, -0.00231561, 1.0, 0.95545, -0.00223919, 0.295145, 1.0, 0.999692, 0.0247198, -0.00216127, 1.0, 0.992435, 0.118537, -0.0319575, 1.0, 0.955012, -0.0116806, 0.296338, 1.0, 0.61891, -0.479873, 0.62183, 1.0, 0.942373, 0.233463, -0.239641, 1.0, 0.883721, -0.442581, 0.152184, 1.0, 0.532739, -0.736281, -0.417228, 1.0, 0.738698, -0.647327, 0.187863, 1.0, 0.688083, -0.472484, 0.550727, 1.0, 0.81257, -0.37062, 0.449857, 1.0, 0.632478, -0.261938, 0.728944, 1.0, 0.561728, -0.451272, 0.693409, 1.0, 0.842834, -0.121053, 0.524382, 1.0, 0.471436, -0.7965, 0.378597, 1.0, 0.876848, -0.205893, 0.434449, 1.0, 0.384975, -0.832263, -0.398915, 1.0, 0.943799, -0.223695, 0.243318, 1.0, 0.949279, 0.213985, 0.23039, 1.0, 0.949875, -0.0179344, 0.312115, 1.0, 0.992486, -0.116767, 0.0365674, 1.0, 0.942981, -0.229408, 0.241161, 1.0, 0.95464, 0.0452325, 0.294306, 1.0, 0.999685, -0.0250191, -0.00194253, 1.0, 0.953039, 0.0750593, 0.293398, 1.0, 0.997901, -0.0647539, 0.000926958, 1.0, 0.949089, -0.308526, 0.063572, 1.0, 0.902602, 0.362316, 0.23246, 1.0, 0.880629, 0.449858, -0.148731, 1.0, 0.567785, -0.701231, 0.431156, 1.0, -0.356934, -0.934096, 0.00790954, 1.0, 0.488731, 0.260902, 0.832509, 1.0, 0.692743, 0.307687, 0.652254, 1.0, 0.23158, -0.803192, 0.548866, 1.0, 0.80229, 0.184352, 0.567755, 1.0, 0.497119, -0.455, 0.738815, 1.0, -0.211693, 0.689372, 0.692786, 1.0, 0.445271, 0.880697, -0.161573, 1.0, 0.777632, -0.141621, 0.612562, 1.0, 0.921156, 0.128948, -0.36721, 1.0, 0.766483, -0.0463806, 0.640587, 1.0, 0.756701, 0.0578783, -0.651194, 1.0, 0.906475, 0.0188674, 0.421838, 1.0, 0.770288, -0.0143396, -0.637534, 1.0, 0.966936, 0.0543551, 0.249158, 1.0, 0.914821, -0.0436202, -0.401498, 1.0, 0.999996, -0.00199033, 0.00197972, 1.0, 0.970155, -0.072795, -0.2313, 1.0, 0.927333, -0.151223, 0.342324, 1.0, 0.999299, -0.0205247, -0.0313151, 1.0, 0.952174, -0.0381519, 0.303164, 1.0, 1.0, -0.000517052, -2.22311e-06, 1.0, 0.95224, 0.037044, -0.303095, 1.0, 0.343489, -0.643673, 0.683886, 1.0),
		null, ; no Vertex Colors,
		Vector2Array(0.334325, 0.00681126, 0.309728, 0.0834113, 0.334377, 0.084371, 0.359024, 0.0833782, 0.285509, 0.0737149, 0.38323, 0.0736492, 0.262422, 0.055832, 0.406293, 0.0557353, 0.242813, 0.0279212, 0.425864, 0.0277985, 0.350881, 0.9875, 0.285393, 0.945288, 0.269579, 0.970855, 0.432182, 0.970854, 0.416368, 0.945288, 0.305437, 0.92806, 0.396323, 0.92806, 0.327712, 0.918124, 0.374049, 0.918124, 0.35088, 0.914894, 0.297388, 0.12883, 0.334408, 0.131196, 0.371425, 0.12878, 0.263183, 0.120528, 0.405618, 0.120432, 0.224355, 0.102462, 0.444422, 0.102314, 0.184213, 0.0717505, 0.484522, 0.0715486, 0.247602, 0.906028, 0.215759, 0.937117, 0.454158, 0.906027, 0.281658, 0.885273, 0.420102, 0.885272, 0.316233, 0.873674, 0.385528, 0.873674, 0.35088, 0.870398, 0.29975, 0.788874, 0.402011, 0.788874, 0.35088, 0.784665, 0.248644, 0.800925, 0.453117, 0.800925, 0.17162, 0.83698, 0.53014, 0.83698, 0.156887, 0.863872, 0.544873, 0.863871, 0.14802, 0.193943, 0.520879, 0.19369, 0.542839, 0.166014, 0.234476, 0.206149, 0.434442, 0.206013, 0.284247, 0.194802, 0.384656, 0.194734, 0.334447, 0.188822, 0.225871, 0.701326, 0.47589, 0.701327, 0.416846, 0.688374, 0.284916, 0.688373, 0.350881, 0.677202, 0.219719, 0.667758, 0.482042, 0.667759, 0.425794, 0.653868, 0.164194, 0.677141, 0.129064, 0.759621, 0.537567, 0.677143, 0.12492, 0.287163, 0.245421, 0.344033, 0.239905, 0.313673, 0.544105, 0.286877, 0.423685, 0.34391, 0.475894, 0.35778, 0.291677, 0.337587, 0.288828, 0.312329, 0.429159, 0.313543, 0.37742, 0.337528, 0.334548, 0.336342, 0.334532, 0.313346, 0.380235, 0.312267, 0.334566, 0.362397, 0.37409, 0.364813, 0.295045, 0.364868, 0.415784, 0.373672, 0.19323, 0.357975, 0.253363, 0.373784, 0.461202, 0.391545, 0.131489, 0.384229, 0.207969, 0.39172, 0.53767, 0.383948, 0.511666, 0.424102, 0.109679, 0.639258, 0.105102, 0.678105, 0.592082, 0.639262, 0.539645, 0.642154, 0.162116, 0.642151, 0.490096, 0.634236, 0.275968, 0.653867, 0.211666, 0.634234, 0.439298, 0.623722, 0.262464, 0.623721, 0.188168, 0.550819, 0.513596, 0.550822, 0.489039, 0.539133, 0.161444, 0.554216, 0.540319, 0.55422, 0.13391, 0.548646, 0.567853, 0.54865, 0.15755, 0.424348, 0.265733, 0.466321, 0.403543, 0.466224, 0.421847, 0.493421, 0.287532, 0.448744, 0.381719, 0.448679, 0.310807, 0.438851, 0.35843, 0.438818, 0.334616, 0.435495, 0.334669, 0.511284, 0.247466, 0.493543, 0.167574, 0.481774, 0.53419, 0.481778, 0.212725, 0.53913, 0.231867, 0.519401, 0.469897, 0.519404, 0.334503, 0.270501, 0.28249, 0.265382, 0.231951, 0.261933, 0.386508, 0.265311, 0.437042, 0.261793, 0.3345, 0.265757, 0.364996, 0.258397, 0.303993, 0.258439, 0.292658, 0.241006, 0.376307, 0.240949, 0.380657, 0.231362, 0.288296, 0.231425, 0.302579, 0.217245, 0.366354, 0.217202, 0.323434, 0.208145, 0.345487, 0.20813, 0.334459, 0.20593, 0.328225, 0.633545, 0.373538, 0.633546, 0.350881, 0.634972, 0.397647, 0.596077, 0.304116, 0.596077, 0.312711, 0.58453, 0.389052, 0.584531, 0.320253, 0.599903, 0.381509, 0.599904, 0.365136, 0.604014, 0.324698, 0.583587, 0.377065, 0.583587, 0.336627, 0.604013, 0.350881, 0.606319, 0.344486, 0.591954, 0.357277, 0.591954, 0.350881, 0.592169, 0.344815, 0.582841, 0.356948, 0.582841, 0.36432, 0.589537, 0.337443, 0.589537, 0.350881, 0.585105, 0.154472, 0.802844, 0.547287, 0.802844, 0.572695, 0.759622, 0.138783, 0.241418, 0.53018, 0.241152, 0.122701, 0.833364, 0.579058, 0.833364, 0.568732, 0.805042, 0.126022, 0.166296, 0.116734, 0.237729, 0.552223, 0.237433, 0.573097, 0.2103, 0.0858831, 0.328704, 0.108748, 0.323507, 0.583196, 0.328361, 0.571416, 0.298607, 0.10218, 0.731624, 0.10231, 0.758682, 0.599579, 0.731627, 0.599448, 0.758684, 0.61911, 0.734525, 0.110085, 0.26765, 0.558912, 0.267344, 0.0976237, 0.298932, 0.133027, 0.805042, 0.576854, 0.787947, 0.124904, 0.787947, 0.085089, 0.812385, 0.616669, 0.812384, 0.611472, 0.790856, 0.0958239, 0.210624, 0.0736695, 0.269028, 0.595328, 0.268672, 0.608712, 0.246707, 0.0637684, 0.333083, 0.605315, 0.332709, 0.600886, 0.309537, 0.0826469, 0.734521, 0.0745715, 0.758623, 0.627184, 0.758625, 0.637765, 0.738381, 0.0718469, 0.289406, 0.597178, 0.289047, 0.068166, 0.309902, 0.0902856, 0.790856, 0.615665, 0.778625, 0.086092, 0.778624, 0.0556612, 0.795973, 0.646094, 0.795972, 0.642793, 0.781306, 0.0602551, 0.247079, 0.0418876, 0.291091, 0.627137, 0.290691, 0.636293, 0.275662, 0.0329806, 0.33518, 0.636102, 0.334764, 0.631795, 0.319227, 0.0639901, 0.738378, 0.0479622, 0.759382, 0.653791, 0.759384, 0.662498, 0.746931, 0.0405738, 0.305749, 0.62847, 0.305347, 0.037267, 0.319636, 0.058962, 0.781306, 0.64608, 0.772508, 0.0556741, 0.772507, 0.0372902, 0.785582, 0.664463, 0.785581, 0.661607, 0.775282, 0.0327112, 0.276073, 0.0215605, 0.305537, 0.647481, 0.305109, 0.653832, 0.293955, 0.0127502, 0.332922, 0.656327, 0.33248, 0.651755, 0.323742, 0.0392542, 0.746928, 0.0319744, 0.761976, 0.669777, 0.761977, 0.677481, 0.756043, 0.0186707, 0.316823, 0.650386, 0.31639, 0.0173113, 0.324177, 0.040146, 0.775283, 0.663864, 0.769187, 0.0378882, 0.769186, 0.00553057, 0.321214, 0.66353, 0.320763, 0.0151941, 0.29439, 0.021875, 0.767374, 0.679875, 0.767374, 0.0242695, 0.756041, 0.104748, 0.704663, 0.59701, 0.704666, 0.596658, 0.678109, 0.119821, 0.354355, 0.549297, 0.354059, 0.560326, 0.323196, 0.741739, 0.594735, 0.774534, 0.640829, 0.794811, 0.611272, 0.812045, 0.359553, 0.822664, 0.393767, 0.867609, 0.359443, 0.833729, 0.623399, 0.771325, 0.359623, 0.789664, 0.419158, 0.798549, 0.674871, 0.852086, 0.62912, 0.752119, 0.359649, 0.774449, 0.430822, 0.833364, 0.732785, 0.876502, 0.794297, 0.905928, 0.755619, 0.626142, 0.12584, 0.684031, 0.171355, 0.670282, 0.129445, 0.835112, 0.77826, 0.855674, 0.821627, 0.712297, 0.152198, 0.705368, 0.13184, 0.835678, 0.813584, 0.835312, 0.848098, 0.739837, 0.133386, 0.814886, 0.818867, 0.711702, 0.111381, 0.793515, 0.790181, 0.68374, 0.0880533, 0.766659, 0.755926, 0.651157, 0.0625454, 0.741468, 0.695484, 0.809632, 0.690529, 0.838055, 0.455746, 0.832493, 0.474352, 0.741611, 0.652753, 0.850573, 0.414898, 0.70878, 0.642439, 0.884985, 0.414768, 0.897641, 0.455524, 0.684622, 0.677612, 0.741265, 0.714907, 0.903486, 0.473757, 0.728308, 0.809842, 0.704746, 0.0239031, 0.719126, 0.0647202, 0.767177, 0.823398, 0.729235, 0.0989289, 0.801448, 0.83562, 0.801992, 0.857323, 0.750905, 0.100604, 0.768083, 0.866469, 0.761852, 0.0670909, 0.725546, 0.877384, 0.774889, 0.0239031, 0.649737, 0.628186, 0.673638, 0.693291, 0.945622, 0.418646, 0.960811, 0.43016, 0.68864, 0.613965, 0.912659, 0.39353, 0.688774, 0.578231, 0.923111, 0.359338, 0.963695, 0.359273, 0.65007, 0.566171, 0.631828, 0.634677, 0.982822, 0.359251, 0.76593, 0.938988, 0.835292, 0.0686213, 0.795643, 0.0954164, 0.794444, 0.901481, 0.767377, 0.114573, 0.815012, 0.874491, 0.834899, 0.882536, 0.774307, 0.134931, 0.83524, 0.917551, 0.809392, 0.137326, 0.836142, 0.961489, 0.853532, 0.140931, 0.685023, 0.514943, 0.631828, 0.560487, 0.945475, 0.299906, 0.960651, 0.288348, 0.708963, 0.548745, 0.912532, 0.325169, 0.741713, 0.536753, 0.884715, 0.304008, 0.897395, 0.263095, 0.741811, 0.494082, 0.673972, 0.499427, 0.903149, 0.244822, 0.90059, 0.940728, 0.828518, 0.204225, 0.795934, 0.178718, 0.877238, 0.906682, 0.767973, 0.15539, 0.855659, 0.877418, 0.869127, 0.860657, 0.75044, 0.167842, 0.902711, 0.872818, 0.760549, 0.202051, 0.942639, 0.889758, 0.774929, 0.242868, 0.798747, 0.511664, 0.741677, 0.474938, 0.837784, 0.263388, 0.832119, 0.244822, 0.774592, 0.546913, 0.850305, 0.304092, 0.794913, 0.575429, 0.822532, 0.325311, 0.789498, 0.300072, 0.834015, 0.561054, 0.809613, 0.495564, 0.774264, 0.288457, 0.947192, 0.819431, 0.704785, 0.242869, 0.717822, 0.199681, 0.902958, 0.829891, 0.728769, 0.166167, 0.868722, 0.838896, 0.644382, 0.19815, 0.852031, 0.554463, 0.323475, 0.241393, 0.341854, 0.245199, 0.322072, 0.238542, 0.34549, 0.241378, 0.325784, 0.234913, 0.34689, 0.238526, 0.331341, 0.232692, 0.343173, 0.234901, 0.334476, 0.231885, 0.337613, 0.232688, 0.327117, 0.245209, 0.334486, 0.245974, 0.329371, 0.239041, 0.334481, 0.239096, 0.339592, 0.239034, 0.486001, 0.937116),
		null, ; No UV2,
		null, ; No Bones,
		null, ; No Weights,
		IntArray(0, 2, 1, 2, 0, 3, 0, 1, 4, 3, 0, 5, 0, 4, 6, 5, 0, 7, 0, 6, 8, 7, 0, 9, 10, 12, 11, 13, 10, 14, 10, 11, 15, 14, 10, 16, 10, 15, 17, 16, 10, 18, 10, 17, 19, 18, 10, 19, 2, 21, 20, 22, 21, 2, 1, 20, 23, 3, 5, 24, 4, 23, 25, 5, 7, 26, 6, 25, 27, 7, 9, 28, 12, 30, 29, 13, 14, 31, 11, 29, 32, 14, 16, 33, 15, 32, 34, 16, 18, 35, 17, 34, 36, 18, 19, 36, 36, 34, 37, 36, 39, 38, 34, 32, 40, 35, 38, 41, 32, 29, 42, 33, 41, 43, 29, 30, 44, 31, 43, 45, 27, 25, 46, 28, 48, 47, 25, 23, 49, 26, 47, 50, 23, 20, 51, 24, 50, 52, 20, 21, 53, 53, 21, 22, 37, 40, 54, 38, 56, 55, 39, 37, 57, 39, 58, 56, 57, 54, 59, 56, 61, 60, 54, 63, 62, 55, 60, 64, 65, 67, 66, 68, 70, 69, 67, 72, 71, 73, 69, 74, 72, 76, 75, 77, 74, 75, 71, 75, 78, 74, 79, 78, 66, 71, 80, 69, 81, 79, 82, 66, 83, 70, 84, 81, 85, 82, 86, 87, 88, 84, 62, 90, 89, 64, 92, 91, 59, 62, 93, 60, 94, 92, 95, 59, 96, 61, 97, 94, 98, 96, 99, 97, 101, 100, 96, 93, 102, 94, 100, 103, 93, 89, 104, 92, 103, 105, 106, 86, 107, 88, 109, 108, 86, 83, 110, 84, 108, 111, 83, 80, 112, 81, 111, 113, 80, 78, 114, 79, 113, 114, 115, 112, 114, 113, 115, 114, 115, 110, 112, 111, 115, 113, 115, 107, 110, 108, 115, 111, 115, 116, 107, 109, 115, 108, 117, 102, 104, 103, 118, 105, 117, 99, 102, 100, 118, 103, 117, 119, 99, 101, 118, 100, 117, 120, 119, 121, 118, 101, 72, 123, 122, 77, 76, 122, 67, 124, 123, 73, 77, 125, 67, 65, 124, 68, 73, 126, 124, 46, 49, 47, 126, 50, 127, 122, 123, 127, 128, 125, 123, 130, 129, 131, 125, 128, 130, 123, 124, 131, 132, 126, 49, 133, 124, 132, 50, 126, 49, 51, 133, 52, 50, 132, 51, 134, 133, 135, 52, 132, 51, 136, 134, 137, 52, 135, 53, 138, 136, 138, 53, 137, 51, 53, 136, 53, 52, 137, 139, 58, 57, 58, 140, 56, 141, 58, 139, 58, 141, 140, 139, 57, 95, 56, 140, 61, 139, 95, 98, 140, 142, 97, 143, 119, 120, 101, 142, 121, 98, 119, 143, 101, 97, 142, 143, 120, 144, 121, 142, 145, 139, 143, 146, 140, 148, 147, 143, 144, 149, 142, 147, 150, 141, 139, 151, 141, 152, 148, 152, 151, 153, 152, 155, 154, 146, 149, 156, 147, 158, 157, 151, 146, 159, 148, 154, 158, 160, 153, 159, 154, 160, 158, 155, 153, 160, 154, 155, 160, 160, 159, 156, 158, 160, 157, 161, 54, 40, 55, 162, 41, 63, 54, 161, 55, 163, 162, 161, 40, 42, 41, 162, 43, 46, 124, 164, 126, 47, 165, 164, 124, 65, 126, 165, 68, 42, 44, 166, 43, 168, 167, 169, 46, 170, 48, 172, 171, 65, 174, 173, 68, 176, 175, 177, 63, 178, 179, 181, 180, 46, 164, 182, 47, 171, 183, 164, 65, 184, 165, 183, 176, 161, 42, 185, 162, 186, 168, 63, 161, 187, 163, 180, 186, 185, 166, 188, 168, 190, 189, 191, 170, 192, 172, 194, 193, 184, 173, 195, 176, 197, 196, 198, 178, 199, 181, 201, 200, 170, 182, 202, 171, 193, 203, 182, 184, 204, 183, 203, 197, 187, 185, 205, 186, 206, 190, 178, 187, 207, 180, 200, 206, 205, 188, 208, 190, 210, 209, 211, 192, 212, 194, 214, 213, 204, 195, 215, 197, 217, 216, 218, 199, 219, 201, 221, 220, 192, 202, 222, 193, 213, 223, 202, 204, 224, 203, 223, 217, 207, 205, 225, 206, 226, 210, 199, 207, 227, 200, 220, 226, 225, 208, 228, 210, 230, 229, 231, 212, 232, 214, 234, 233, 224, 215, 235, 217, 237, 236, 238, 219, 239, 221, 241, 240, 212, 222, 242, 213, 233, 243, 222, 224, 244, 223, 243, 237, 227, 225, 245, 226, 246, 230, 219, 227, 247, 220, 240, 246, 244, 235, 248, 236, 237, 249, 244, 248, 242, 249, 237, 243, 232, 242, 248, 243, 233, 249, 250, 232, 248, 233, 234, 249, 245, 228, 251, 229, 230, 252, 245, 251, 247, 252, 230, 246, 239, 247, 251, 246, 240, 252, 253, 239, 251, 240, 241, 252, 254, 62, 63, 64, 255, 163, 90, 62, 254, 64, 256, 255, 254, 63, 177, 163, 255, 179, 257, 65, 82, 68, 258, 70, 174, 65, 257, 68, 259, 258, 257, 82, 85, 70, 258, 87, 260, 262, 261, 263, 265, 264, 261, 262, 266, 264, 268, 267, 269, 266, 270, 268, 272, 271, 273, 275, 274, 276, 278, 277, 279, 274, 280, 278, 282, 281, 280, 284, 283, 285, 281, 282, 283, 284, 286, 285, 282, 287, 288, 279, 283, 289, 287, 282, 290, 273, 279, 291, 289, 278, 292, 269, 293, 294, 295, 272, 296, 261, 269, 297, 294, 268, 260, 261, 296, 264, 265, 297, 260, 296, 298, 297, 265, 299, 298, 296, 292, 299, 300, 294, 301, 292, 302, 300, 303, 295, 304, 290, 288, 305, 306, 289, 307, 288, 286, 306, 308, 287, 286, 284, 309, 285, 287, 308, 309, 284, 310, 285, 308, 311, 312, 307, 309, 313, 311, 308, 314, 304, 307, 315, 313, 306, 316, 301, 317, 318, 319, 303, 320, 298, 301, 321, 318, 300, 260, 298, 320, 299, 265, 321, 260, 320, 322, 321, 265, 323, 322, 320, 316, 323, 324, 318, 325, 316, 326, 324, 327, 319, 328, 314, 312, 329, 330, 313, 331, 312, 310, 330, 332, 311, 310, 284, 333, 285, 311, 332, 333, 284, 334, 285, 332, 335, 336, 331, 333, 337, 335, 332, 338, 328, 331, 339, 337, 330, 340, 325, 341, 342, 343, 327, 344, 322, 325, 345, 342, 324, 260, 322, 344, 323, 265, 345, 260, 344, 346, 345, 265, 347, 346, 344, 340, 347, 348, 342, 349, 340, 350, 348, 351, 343, 352, 338, 336, 353, 354, 337, 355, 336, 334, 354, 356, 335, 334, 284, 357, 285, 335, 356, 357, 284, 358, 285, 356, 359, 360, 355, 357, 361, 359, 356, 362, 352, 355, 363, 361, 354, 364, 349, 365, 366, 367, 351, 368, 346, 349, 369, 366, 348, 260, 346, 368, 347, 265, 369, 260, 368, 370, 369, 265, 371, 370, 368, 364, 371, 372, 366, 373, 364, 374, 372, 375, 367, 376, 362, 360, 377, 378, 361, 379, 360, 358, 378, 380, 359, 358, 284, 381, 285, 359, 380, 381, 284, 280, 285, 380, 281, 274, 379, 381, 277, 281, 380, 275, 376, 379, 382, 277, 378, 266, 373, 383, 267, 271, 375, 262, 370, 373, 263, 267, 372, 260, 370, 262, 371, 265, 263, 129, 130, 384, 131, 128, 385, 130, 133, 386, 132, 131, 387, 133, 134, 388, 135, 132, 389, 134, 136, 390, 137, 135, 391, 136, 138, 392, 138, 137, 393, 127, 129, 394, 128, 127, 395, 386, 388, 396, 396, 388, 390, 390, 392, 397, 393, 397, 392, 393, 391, 398, 389, 398, 391, 398, 385, 395, 395, 394, 396, 384, 396, 394, 384, 386, 396, 387, 385, 398, 387, 398, 389, 2, 20, 1, 22, 2, 3, 1, 23, 4, 3, 24, 22, 4, 25, 6, 5, 26, 24, 6, 27, 8, 7, 28, 26, 12, 29, 11, 13, 31, 399, 11, 32, 15, 14, 33, 31, 15, 34, 17, 16, 35, 33, 17, 36, 19, 18, 36, 35, 36, 37, 39, 36, 38, 35, 34, 40, 37, 35, 41, 33, 32, 42, 40, 33, 43, 31, 29, 44, 42, 31, 45, 399, 27, 46, 169, 28, 47, 26, 25, 49, 46, 26, 50, 24, 23, 51, 49, 24, 52, 22, 20, 53, 51, 53, 22, 52, 37, 54, 57, 38, 55, 41, 39, 57, 58, 39, 56, 38, 57, 59, 95, 56, 60, 55, 54, 62, 59, 55, 64, 163, 65, 66, 82, 68, 69, 73, 67, 71, 66, 73, 74, 77, 72, 75, 71, 77, 75, 76, 71, 78, 80, 74, 78, 75, 66, 80, 83, 69, 79, 74, 82, 83, 86, 70, 81, 69, 85, 86, 106, 87, 84, 70, 62, 89, 93, 64, 91, 256, 59, 93, 96, 60, 92, 64, 95, 96, 98, 61, 94, 60, 98, 99, 119, 97, 100, 94, 96, 102, 99, 94, 103, 92, 93, 104, 102, 92, 105, 91, 106, 107, 116, 88, 108, 84, 86, 110, 107, 84, 111, 81, 83, 112, 110, 81, 113, 79, 80, 114, 112, 79, 114, 78, 72, 122, 76, 77, 122, 125, 67, 123, 72, 73, 125, 126, 127, 123, 129, 127, 125, 122, 130, 124, 133, 131, 126, 125, 139, 98, 143, 140, 97, 61, 139, 146, 151, 140, 147, 142, 143, 149, 146, 142, 150, 145, 141, 151, 152, 141, 148, 140, 152, 153, 155, 152, 154, 148, 146, 156, 159, 147, 157, 150, 151, 159, 153, 148, 158, 147, 42, 166, 185, 43, 167, 45, 169, 170, 191, 48, 171, 47, 65, 173, 184, 68, 175, 259, 177, 178, 198, 179, 180, 163, 46, 182, 170, 47, 183, 165, 164, 184, 182, 165, 176, 68, 161, 185, 187, 162, 168, 43, 63, 187, 178, 163, 186, 162, 185, 188, 205, 168, 189, 167, 191, 192, 211, 172, 193, 171, 184, 195, 204, 176, 196, 175, 198, 199, 218, 181, 200, 180, 170, 202, 192, 171, 203, 183, 182, 204, 202, 183, 197, 176, 187, 205, 207, 186, 190, 168, 178, 207, 199, 180, 206, 186, 205, 208, 225, 190, 209, 189, 211, 212, 231, 194, 213, 193, 204, 215, 224, 197, 216, 196, 218, 219, 238, 201, 220, 200, 192, 222, 212, 193, 223, 203, 202, 224, 222, 203, 217, 197, 207, 225, 227, 206, 210, 190, 199, 227, 219, 200, 226, 206, 225, 228, 245, 210, 229, 209, 231, 232, 250, 214, 233, 213, 224, 235, 244, 217, 236, 216, 238, 239, 253, 221, 240, 220, 212, 242, 232, 213, 243, 223, 222, 244, 242, 223, 237, 217, 227, 245, 247, 226, 230, 210, 219, 247, 239, 220, 246, 226, 261, 266, 269, 264, 267, 263, 269, 270, 293, 268, 271, 267, 273, 274, 279, 276, 277, 382, 279, 280, 283, 278, 281, 277, 288, 283, 286, 289, 282, 278, 290, 279, 288, 291, 278, 276, 292, 293, 302, 294, 272, 268, 296, 269, 292, 297, 268, 264, 298, 292, 301, 299, 294, 297, 301, 302, 317, 300, 295, 294, 304, 288, 307, 305, 289, 291, 307, 286, 309, 306, 287, 289, 312, 309, 310, 313, 308, 306, 314, 307, 312, 315, 306, 305, 316, 317, 326, 318, 303, 300, 320, 301, 316, 321, 300, 299, 322, 316, 325, 323, 318, 321, 325, 326, 341, 324, 319, 318, 328, 312, 331, 329, 313, 315, 331, 310, 333, 330, 311, 313, 336, 333, 334, 337, 332, 330, 338, 331, 336, 339, 330, 329, 340, 341, 350, 342, 327, 324, 344, 325, 340, 345, 324, 323, 346, 340, 349, 347, 342, 345, 349, 350, 365, 348, 343, 342, 352, 336, 355, 353, 337, 339, 355, 334, 357, 354, 335, 337, 360, 357, 358, 361, 356, 354, 362, 355, 360, 363, 354, 353, 364, 365, 374, 366, 351, 348, 368, 349, 364, 369, 348, 347, 370, 364, 373, 371, 366, 369, 373, 374, 383, 372, 367, 366, 376, 360, 379, 377, 361, 363, 379, 358, 381, 378, 359, 361, 274, 381, 280, 277, 380, 378, 275, 379, 274, 382, 378, 377, 266, 383, 270, 267, 375, 372, 262, 373, 266, 263, 372, 371, 129, 384, 394, 131, 385, 387, 130, 386, 384, 132, 387, 389, 133, 388, 386, 135, 389, 391, 134, 390, 388, 137, 391, 393, 136, 392, 390, 138, 393, 392, 127, 394, 395, 128, 395, 385, 396, 390, 397, 393, 398, 397, 398, 395, 397, 395, 396, 397)
	],
	"morph_arrays":[]
}
[node type="Spatial" name="Scene"]


[node name="tux" type="MeshInstance" parent="."]

mesh = SubResource(2)
visible = true
transform = Transform(1.0, 0.0, 0.0, 0.0, 1.0, 0.0, 0.0, 0.0, 1.0, -0.00483321, -0.0367274, -0.0385994)
